Master en Big Data. Fundamentos Matemáticos del Análisis de Datos (FMAD).
…
## [1] "C:/Users/Anita/Desktop/master/estadisticar/deberes"

library(tidyverse)
notas <- read.csv(file ="data/testResults.csv.txt", header = TRUE, sep = ",")
view(notas)

Este fichero contiene las notas de los alumnos de una clase, que hicieron dos tests cada semana durante cinco semanas. La tabla de datos no cumple los principios de tidy data que hemos visto en clase. Tu tarea en este ejercicio es explicar por qué no se cumplen y obtener una tabla de datos limpios con la misma información usando tidyR.

Indicación: lee la ayuda de la función separate de tidyR.

(notas_ordenadas = notas %>%
  pivot_longer(c("week1", "week2", "week3", "week4", "week5"), names_to = "week", values_to = "feedback")) %>%
  separate(gender_age, into = c("gender","age"), sep="_")

## # A tibble: 1,000 x 7
##    name     id gender age   test_number week  feedback
##    <chr> <int> <chr>  <chr>       <int> <chr>    <int>
##  1 Jacob   108 m      20              1 week1        8
##  2 Jacob   108 m      20              1 week2        5
##  3 Jacob   108 m      20              1 week3        7
##  4 Jacob   108 m      20              1 week4        5
##  5 Jacob   108 m      20              1 week5        6
##  6 Jacob   108 m      20              2 week1        2
##  7 Jacob   108 m      20              2 week2        2
##  8 Jacob   108 m      20              2 week3        4
##  9 Jacob   108 m      20              2 week4        0
## 10 Jacob   108 m      20              2 week5        3
## # ... with 990 more rows
…
